
{
  "bills": [
    {
      "name": "B1",
      "category": "C1",
      "amount": 800
    },
    {
      "name": "B2",
      "category": "C2",
      "amount": 1200
    }
  ],
  "districts": [
    {
      "name": "D1",
      "availableFunds": 200000,
      "categoryDefaultFunding": [
        {
          "category": "C1",
          "amount": 100
        },
        {
          "category": "C2",
          "amount": 200
        }
      ],
      "billSpecificFunding": [],
      "caps": []
    },
    {
      "name": "D2",
      "availableFunds": 200000,
      "categoryDefaultFunding": [
        {
          "category": "C1",
          "amount": 300
        },
        {
          "category": "C2",
          "amount": 400
        }
      ],
      "billSpecificFunding": [],
      "caps": []
  }]
}
